\relax 
\@writefile{toc}{\contentsline {section}{\numberline {1}Colores en texto}{1}}
\@writefile{toc}{\contentsline {section}{\numberline {2}Colores en RGB}{1}}
\@writefile{toc}{\contentsline {section}{\numberline {3}Colores CMYK}{1}}
\@writefile{toc}{\contentsline {section}{\numberline {4}Colores en GRAY}{1}}
\@writefile{toc}{\contentsline {section}{\numberline {5}Crear un nuevo color}{1}}
\@writefile{toc}{\contentsline {section}{\numberline {6}Cajas de colores}{2}}
\@writefile{toc}{\contentsline {section}{\numberline {7}Colores de texto}{2}}
