\relax 
\@writefile{toc}{\contentsline {section}{\numberline {1}Modo matematico b\IeC {\'a}sico}{1}}
\@writefile{toc}{\contentsline {section}{\numberline {2}ra\IeC {\'\i }ces}{1}}
\@writefile{toc}{\contentsline {section}{\numberline {3}Ejercicio Integrales}{2}}
\@writefile{toc}{\contentsline {section}{\numberline {4}Tablas en modo matematico}{2}}
\@writefile{toc}{\contentsline {section}{\numberline {5}Tablas en modo texto}{2}}
\@writefile{toc}{\contentsline {section}{\numberline {6}Agrupaciones en vertical}{2}}
